// Jest Snapshot v1, https://goo.gl/fbAQLP

exports[`DefaultLayout should render component without any crash 1`] = `
<Suspense
  fallback={<PageLoading />}
>
  <Layout
    menu={<UNDEFINED />}
  />
</Suspense>
`;
