// Jest Snapshot v1, https://goo.gl/fbAQLP

exports[`Layout should render component without any crash 1`] = `
<Layout>
  <t
    isStyleReboot={true}
    theme="default"
  >
    <div
      className="elmo-layout menu-status-wide elmo-elements elmo-layout--theme-default"
    >
      <div
        className="elmo-layout__main-app"
      />
    </div>
  </t>
</Layout>
`;
